<svg xmlns="http://www.w3.org/2000/svg" width="30" height="48" viewBox="0 0 30 48">
    <g fill="none" fill-rule="evenodd">
        <path fill="#1B2F73" d="M14.955 23.555c-5.912 0-10.72-4.81-10.72-10.72 0-.749.077-1.48.224-2.185a12.84 12.84 0 0 0 8.591-6.376A12.803 12.803 0 0 0 25.111 9.41c.364 1.077.564 2.228.564 3.425 0 5.912-4.809 10.721-10.72 10.721m-.732-21.413c.074-.007.148-.01.223-.015.168-.008.338-.013.509-.013 3.925 0 7.363 2.122 9.23 5.277A10.63 10.63 0 0 1 17.02 5.32a10.84 10.84 0 0 1-2.856-3.174l.06-.004m-2.748.6A10.777 10.777 0 0 1 5.46 8.185a10.776 10.776 0 0 1 6.017-5.441M27.18 8.955c.053-.016.107-.031.16-.048C25.684 3.74 20.843 0 15.126 0a12.776 12.776 0 0 0-.636.016c-.045.002-.09.007-.136.01C7.551.338 2.131 5.953 2.131 12.833c0 7.083 5.742 12.824 12.824 12.824s12.823-5.741 12.823-12.824c0-1.352-.21-2.655-.598-3.879"/>
        <path fill="#1B2F73" d="M25.213 25.367H4.647A4.647 4.647 0 0 0 0 30.014v13.107a4.648 4.648 0 0 0 4.647 4.647h20.566a4.647 4.647 0 0 0 4.647-4.647V30.014a4.647 4.647 0 0 0-4.647-4.647m0 2.103a2.547 2.547 0 0 1 2.544 2.544v13.107a2.547 2.547 0 0 1-2.544 2.544H4.647a2.548 2.548 0 0 1-2.544-2.544V30.014a2.548 2.548 0 0 1 2.544-2.544h20.566"/>
        <path fill="#0063BD" d="M15.493 27.88h-1.438c-.916 0-1.688.684-1.799 1.593l-1.442 11.832a1.812 1.812 0 0 0 .968 1.83l1.754.905a1.812 1.812 0 0 0 1.511.07l2.552-1.033a1.813 1.813 0 0 0 1.12-1.9l-1.427-11.704a1.813 1.813 0 0 0-1.799-1.593m-.257 2.103l1.368 11.228-2.222.9-1.456-.752 1.387-11.376h.923"/>
    </g>
</svg>
